Place,Name,Sex,BirthDate,Country,Equipment,Division,BodyweightKg,WeightClassKg,Squat1Kg,Squat2Kg,Squat3Kg,Squat4Kg,Best3SquatKg,Bench1Kg,Bench2Kg,Bench3Kg,Bench4Kg,Best3BenchKg,Deadlift1Kg,Deadlift2Kg,Deadlift3Kg,Deadlift4Kg,Best3DeadliftKg,TotalKg,Event,Team
1,Sasha Mailen Bentos,F,2006-11-30,Argentina,Raw,J13-15,130.68,90+,-140,150,-165,,150,65,-70,-70,,65,150,165,-175,,165,380,SBD,
1,Candela Francitorra,F,2004-12-28,,Raw,J16-17,52.18,56,80,92.5,-100,,92.5,45,52.5,57.5,60,57.5,95,105,115,-125,115,265,SBD,
2,Brisa Gobbo,F,2005-07-13,,Raw,J16-17,54.1,56,85,87.5,-92.5,,87.5,35,40,42.5,,42.5,105,-112.5,-112.5,,105,235,SBD,
1,Mailen Erreguerena,F,2006-01-03,Argentina,Raw,J16-17,59.94,60,-80,80,85,93,85,40,45,50,,50,95,105,-108,,105,240,SBD,
1,Avril Blanco,F,2004-08-13,Argentina,Raw,J16-17,69.74,75,85,95,100,,100,45,50,55,,55,120,130,140,,140,295,SBD,
1,Maria Candelaria Falzone,F,2003-03-11,,Raw,J18-19,54.34,56,-90,90,100,110,100,35,42.5,-47.5,,42.5,103,115,-125,,115,257.5,SBD,
1,Martina Fernandez,F,2002-08-11,Argentina,Raw,J18-19,59.76,60,95,100,107.5,,107.5,40,-45,-45,,40,105,110,115,,115,262.5,SBD,
1,Ludmila Gobbo,F,2002-12-17,Argentina,Raw,J18-19,63.84,67.5,95,105,107.5,,107.5,42.5,47.5,-50,,47.5,95,-102.5,-102.5,,95,250,SBD,
1,Aimara Daros,F,2003-10-24,Argentina,Raw,J18-19,72.84,75,100,-115,115,,115,45,52.5,57.5,,57.5,130,145,155,-160,155,327.5,SBD,
2,Valentina Mendoza,F,2002-08-30,Argentina,Raw,J18-19,72.08,75,80,95,-105,,95,45,-55,55,,55,135,-150,-155,,135,285,SBD,
1,Luciana Paz,F,1999-05-16,Argentina,Raw,J20-23,47.1,48,75,83,-90.5,,83,45,50,-52.5,,50,90,100.5,107.5,110.5,107.5,240.5,SBD,
1,Belen Volpedo,F,2000-02-14,Argentina,Raw,J20-23,63.96,67.5,110,117.5,-125,,117.5,65,70,-75,,70,130,145,-152.5,,145,332.5,SBD,RONIN
2,Valentina Aguirre,F,2001-05-12,Argentina,Raw,J20-23,66.38,67.5,115,-130,-135,,115,52.5,-55,55,,55,142.5,150,158,165,158,328,SBD,
3,Guadalupe Charchir,F,2001-06-05,Argentina,Raw,J20-23,65.88,67.5,115,122.5,-130,,122.5,47.5,-52.5,-55,,47.5,135,145,150,,150,320,SBD,
4,Lilen Agustina Areco,F,1999-06-28,Argentina,Raw,J20-23,64.2,67.5,97.5,102.5,107.5,,107.5,52.5,57.5,-60,,57.5,115,130,-140,,130,295,SBD,
5,Mara Centurion,F,2000-04-08,Argentina,Raw,J20-23,61.86,67.5,-100,110,-125,,110,45,50,-52.5,,50,100,115,127.5,,127.5,287.5,SBD,
1,Marta Gabriela Palacios,F,1970-03-30,Argentina,Raw,M50-54,66.44,67.5,85,92.5,95,,95,50,-55,-55,,50,150,-160,160,,160,305,SBD,
NS,Gabriela Alejandra Fernandez,F,1997-10-21,,Raw,Open,,,,,,,,,,,,,,,,,,,SBD,
NS,Sofia Antonella Ortiz Alfageme,F,1997-01-28,Argentina,Raw,Open,,,,,,,,,,,,,,,,,,,SBD,
1,Celeste Estrada Graneros,F,1995-12-21,Argentina,Raw,Open,47.78,48,80,85,-90,,85,42.5,45,-47.5,,45,105,107.5,-110,,107.5,237.5,SBD,
1,Soledad Saavedra,F,1981-07-14,Argentina,Raw,Open,51.16,52,100,-110,-110,,100,50,55,-57.5,,55,135,145,152.5,,152.5,307.5,SBD,
2,Valeria Campo,F,1997-07-03,Argentina,Raw,Open,51,52,85,95,-102.5,,95,50,-52.5,-52.5,,50,130,140,-145,,140,285,SBD,
3,Valeria Alegre,F,1996-03-27,Argentina,Raw,Open,51.96,52,70,-80,80,,80,42.5,47.5,,,47.5,125,132.5,140,-142.5,140,267.5,SBD,
DQ,Quimey Lihue Nuño,F,1998-05-26,Argentina,Raw,Open,49.72,52,-110,-110,-110,,,50,-55,-55,,50,110,125,-130,,125,,SBD,
DQ,Brenda Vanesa Medina,F,1993-05-21,Argentina,Raw,Open,50.76,52,100,-107.5,-112.5,,100,-55,-57.5,-57.5,,,120,130,137.5,,137.5,,SBD,RONIN
1,Noemi Anaquin,F,1992-08-19,Argentina,Raw,Open,53.76,56,110,122.5,130,,130,70,75,80,,80,140,150,160,162.5,160,370,SBD,
2,Lucila Sol Cabrera,F,1992-12-09,,Raw,Open,55.42,56,115.5,122.5,-132.5,,122.5,-52.5,60,,,60,135,147.5,160.5,-163,160.5,343,SBD,
3,Tamara Magario,F,1984-11-19,Argentina,Raw,Open,54.38,56,110,117.5,-125,,117.5,65,70,-72.5,,70,-125,130,-137.5,,130,317.5,SBD,POWERLIFTING SANTIAGO
4,Agustina Rocio Tapia,F,1998-04-22,Argentina,Raw,Open,53.98,56,-110,110,120,-130.5,120,55,60,62.5,,62.5,105,115,-125,,115,297.5,SBD,
5,Wanda Vakulski,F,1993-02-27,Argentina,Raw,Open,52.56,56,-97.5,97.5,-112.5,,97.5,45,47.5,-52.5,,47.5,102.5,110,120,,120,265,SBD,
6,Florencia Lara Belen,F,1999-05-04,Argentina,Raw,Open,54.64,56,87.5,97.5,-105,,97.5,45,50,-55,,50,100,-110,113,,113,260.5,SBD,
1,Carolina Rubilar Gatica,F,1994-09-06,Argentina,Raw,Open,58.24,60,-115,-115,115,,115,45,50,-60,,50,105,120,130,,130,295,SBD,
2,Clara Echevarria,F,1990-01-15,Argentina,Raw,Open,59.64,60,75,85,90,,90,50,55,-60,,55,100,110,-112.5,,110,255,SBD,
3,Carla Medero,F,1994-06-09,Argentina,Raw,Open,57.12,60,85,-90,-90,,85,40,45,47.5,,47.5,105,112.5,120,,120,252.5,SBD,
1,Vanesa Barbero,F,1989-12-18,Argentina,Raw,Open,65.58,67.5,110,-120,120,,120,55,60,-65,,60,120,125,130,,130,310,SBD,
2,Candelaria Allendez,F,1997-02-08,Argentina,Raw,Open,64.24,67.5,110,-117.5,117.5,,117.5,47.5,52.5,-57.5,,52.5,122.5,-125,125,,125,295,SBD,
3,Fernanda Lopez,F,1988-04-30,Argentina,Raw,Open,64.1,67.5,67.5,70,75,,75,37.5,40,-45,,40,80,90,100,,100,215,SBD,
1,Veronica Ruiz,F,1984-10-26,Argentina,Raw,Open,72.38,75,127.5,132.5,138,142.5,138,65,70,75,,75,160,-167.5,-167.5,,160,373,SBD,
2,Romina Orue,F,1991-11-22,Argentina,Raw,Open,71.84,75,105,110,-115,,110,55,60,-62.5,,60,130,142.5,150,,150,320,SBD,
3,Maria Florencia Cuello,F,1992-11-02,Argentina,Raw,Open,71.96,75,107.5,115,122.5,,122.5,47.5,55,-60,,55,115,125,132.5,,132.5,310,SBD,
4,Lucía Escariz,F,1997-11-01,Argentina,Raw,Open,68.56,75,105,110,120,,120,52.5,-57.5,57.5,,57.5,120,130,-140,,130,307.5,SBD,
1,Ludmila Motina,F,1989-12-28,Argentina,Raw,Open,82.12,82.5,110,122.5,130,,130,55,62.5,-67.5,,62.5,120,132.5,140,,140,332.5,SBD,
1,Daniela Argañaraz,F,1994-04-17,Argentina,Raw,Open,89.82,90,170,182.5,-192.5,,182.5,60,67.5,-72.5,,67.5,180,-190,190,,190,440,SBD,RONIN
1,Valentina Ochoa Schafer,F,,,Wraps,J20-23,50.08,52,80,-97.5,97.5,-110,97.5,40,47.5,52.5,-60.5,52.5,80,95,-105.5,,95,245,SBD,
DQ,Camila De Franco,F,2000-09-07,Argentina,Wraps,J20-23,55.44,56,-100,-100,-100,,,45,-47.5,47.5,,47.5,100,110,-120,,110,,SBD,
1,Silvina Ruiz,F,2000-01-06,Argentina,Wraps,J20-23,57.24,60,-165,165,180,,180,92.5,-100,100,,100,140,150,-160,,150,430,SBD,
2,Maria Virginia Chirinos,F,1999-09-20,Argentina,Wraps,J20-23,59.28,60,125,132.5,-136,,132.5,47.5,52.5,55.5,,55.5,95,110,-115,,110,298,SBD,
3,Catalina Groppa,F,2000-04-09,Argentina,Wraps,J20-23,56.3,60,80,-90,90,,90,42.5,45,-47.5,,45,110,115,-122.5,,115,250,SBD,
1,Dana Deniz Villan,F,1998-12-11,Argentina,Wraps,J20-23,67.26,67.5,-110,115,122.5,130,122.5,50,-55,-55,,50,105,112.5,120.5,125,120.5,293,SBD,
1,Antonela Vazquez,F,1977-10-20,,Wraps,M40-44,53.52,56,140,150,-160,,150,40,45,-60,,45,127.5,137.5,-142.5,,137.5,332.5,SBD,
1,Veronica Garcia #2,F,1976-08-31,Argentina,Wraps,M45-49,55.34,56,-110,110,115,-117.5,115,60,65,70,72.5,70,90,107.5,110,,110,295,SBD,
1,Marisa Ruppel,F,1977-06-06,Argentina,Wraps,M45-49,72.94,75,125.5,132.5,-137.5,,132.5,55,60,65,,65,125,135.5,140,145,140,337.5,SBD,
1,Veronica Beatriz Duran,F,1977-05-25,Argentina,Wraps,M45-49,80.84,82.5,-165,165,-172.5,,165,60,70,75,,75,160,170,175,180,175,415,SBD,BERTOTTO
1,Maria Eugenia Cisterna,F,1977-02-20,Argentina,Wraps,M45-49,95.98,90+,-155,165,175,-185,175,50,65,-75,,65,155,165,175,180,175,415,SBD,
1,Andrea Monica Leguizamon,F,1971-12-03,Argentina,Wraps,M50-54,55.24,56,105,115,-117.5,,115,-50,52.5,55,,55,100,-110,-110,,100,270,SBD,
1,Inés Alejandra Zeballos,F,1970-03-06,Argentina,Wraps,M55-59,57.98,60,110,120,-130,,120,50,57.5,62.5,,62.5,120,130,140,,140,322.5,SBD,
1,Natalia Rojas,F,1996-06-30,,Wraps,Open,43.04,44,80,85,90,,90,35,40,-42.5,,40,90,98,102.5,105,102.5,232.5,SBD,
1,Micaela Lopez,F,,Argentina,Wraps,Open,46.52,48,125.5,137.5,-145,,137.5,62.5,70.5,72.5,73,72.5,127.5,137.5,-142.5,,137.5,347.5,SBD,
2,Laila Benitez,F,1996-10-20,Argentina,Wraps,Open,47.84,48,80,95,-100,,95,40,45,-50,,45,90,100,107.5,,107.5,247.5,SBD,
1,Ayelén Agustina Noguera,F,1991-12-17,Argentina,Wraps,Open,51.48,52,140,-150,160,,160,55,60,65,65.5,65,130,-140,-140,,130,355,SBD,EL CLUB DE LA FUERZA
2,Carina Villanueva,F,1982-06-16,Argentina,Wraps,Open,50.42,52,110,120,-130,,120,50,55,-60,,55,120,130,-140,,130,305,SBD,
DQ,Jessica Belen Llonga,F,1994-05-16,Argentina,Wraps,Open,50.3,52,-120,-130,-130,,,-55,55,60,,60,115,120,122.5,,122.5,,SBD,
1,Julieta Rendano,F,1994-02-25,Argentina,Wraps,Open,54.6,56,-100,100,110,,110,45,50,52.5,,52.5,130,135,140,,140,302.5,SBD,
2,Georgina Denis Semeraro,F,1993-05-06,Argentina,Wraps,Open,54.82,56,105,-115,-125,,105,40,42.5,47.5,,47.5,105,115,125,,125,277.5,SBD,
3,Sofia Candela Rodriguez,F,1996-12-03,Argentina,Wraps,Open,53.96,56,110,120,-125,,120,52.5,57.5,-60,,57.5,70,90,-110,,90,267.5,SBD,
4,Ana Cuello Heinz,F,1990-06-12,Argentina,Wraps,Open,55.6,56,82.5,90,-95,,90,-55,55,60,,60,85,95,105,,105,255,SBD,
5,Cintia Sosa,F,1988-01-14,Argentina,Wraps,Open,55.76,56,90,-102.5,-107.5,,90,35,-40,-40,,35,120,130,-140.5,,130,255,SBD,
1,Paula Mounier,F,1982-10-04,Argentina,Wraps,Open,59.62,60,165,175,-185,,175,70,75,-80,,75,165,-175,180,190,180,430,SBD,
2,Vanesa Ayala,F,1994-02-20,Argentina,Wraps,Open,58.74,60,150,160,,,160,50,57.5,-65,,57.5,135,145,-152.5,,145,362.5,SBD,
3,Josefina Serqueira,F,1993-03-10,Argentina,Wraps,Open,58.46,60,125,135,140,,140,60,67.5,-70,,67.5,140,150,-160,,150,357.5,SBD,
1,Estela Peña,F,1990-04-10,Argentina,Wraps,Open,66.54,67.5,170,185,195,,195,75,80,-85,,80,160,170,175,,175,450,SBD,EL CLUB DE LA FUERZA
2,Paula Garcia,F,1992-08-27,Argentina,Wraps,Open,65.5,67.5,140,-150,-150,,140,65,70,-75,,70,145,155,162.5,,162.5,372.5,SBD,
3,Belen Opazo,F,1991-05-01,Argentina,Wraps,Open,63.58,67.5,-140,-140,140,,140,72.5,82.5,85,,85,130,145,-150,,145,370,SBD,
4,Valeria Belen Vilas,F,1989-04-13,,Wraps,Open,66.8,67.5,100,-130,-130,,100,40,55,65,,65,110,130,-155.5,,130,295,SBD,BERTOTTO
5,Tamara Duarte,F,1994-07-09,Argentina,Wraps,Open,65.28,67.5,95,-105,105,,105,42.5,-45,-45,,42.5,115,125,135,,135,282.5,SBD,
6,Brenda Lihuen Oberman,F,1996-06-14,Argentina,Wraps,Open,63.88,67.5,100,110,-120,,110,45,50,-55,,50,90,100,-110,,100,260,SBD,
1,Fernanda Camila Nieto,F,1998-06-03,Argentina,Wraps,Open,71.02,75,85,95,-102.5,,95,37.5,40,-42.5,,40,90,102.5,-110,,102.5,237.5,SBD,
1,Florencia Sande,F,1990-01-03,Argentina,Wraps,Open,75.2,82.5,120,130,-140,,130,55,62.5,-67.5,,62.5,115,125,-132.5,,125,317.5,SBD,
1,Florencia Rolón,F,1996-05-14,Argentina,Wraps,Open,89.14,90,-160,160,-180,,160,57.5,62.5,-70,,62.5,160,170,177.5,,177.5,400,SBD,
1,Mariela Ortellado,F,1985-07-10,Argentina,Wraps,Open,99.98,90+,200,215,-225,,215,130,140,-150,,140,220,230,240,,240,595,SBD,BERTOTTO
2,Milagros Stasiuk,F,1994-04-08,Argentina,Wraps,Open,104.2,90+,130,140,152.5,,152.5,65,70,-72.5,,70,120,130,140,,140,362.5,SBD,
1,Sonia Susana Sarapura,F,1978-09-22,Argentina,Raw,M40-44,53.8,56,,,,,,50,55,-60,,55,130,140.5,-142.5,,140.5,195.5,BD,
1,Cecilia Gilabert Carbajo,F,1969-12-01,Argentina,Raw,M50-54,72.1,75,,,,,,50,-55,55,,55,115,120,128,,128,183,BD,
1,Natalia Soledad Martinez,F,1988-10-21,Argentina,Raw,Open,63.48,67.5,,,,,,-55,55,-60,,55,125,135,150,,150,205,BD,
1,Maria Emilia Gil Baleirón,F,1982-04-19,Argentina,Raw,Open,58.76,60,,,,,,57.5,60,-62.5,,60,130,140,150,,150,210,BD,
1,Maria Leticia Bertotto,F,1971-09-18,Argentina,Raw,M50-54,89.94,90,,,,,,120,125,130,,130,,,,,,130,B,
1,Sonia Susana Sarapura,F,1978-09-22,Argentina,Raw,M40-44,53.96,56,,,,,,,,,,,130,135,140,,140,140,D,
1,Sandra Llanquimil,F,1975-05-09,Argentina,Raw,M45-49,57.3,60,,,,,,,,,,,110,115,-120,,115,115,D,
1,Lilian Solange Fernandez,F,1974-11-29,Argentina,Raw,M45-49,73.56,75,,,,,,,,,,,115,-125,-127.5,,115,115,D,
1,Maria Leticia Bertotto,F,1971-09-18,Argentina,Raw,M50-54,89.94,90,,,,,,,,,,,-210,220,230,,230,230,D,
1,Silvana Zapata,F,1993-01-21,Argentina,Raw,Open,53.72,56,,,,,,,,,,,110,120,-125,,120,120,D,
1,Daiana Santiago,F,1990-10-02,,Raw,Open,66.34,67.5,,,,,,,,,,,120,-130,-135,,120,120,D,
1,Ivanna Pamela Santiago,F,1985-02-19,Argentina,Raw,S35-39,68.1,75,,,,,,,,,,,90,-100,-100,,90,90,D,
NS,Maria Eugenia Gonzalez,F,1982-07-28,Argentina,Raw,Open,,,,,,,,,,,,,,,,,,,D,
1,Agustin Fernandez,M,2006-12-24,Argentina,Raw,J13-15,73.74,75,150,160,-170,,160,65,72.5,-77.5,,72.5,-175,-175,175,,175,407.5,SBD,
1,Facundo Rosso,M,,,Raw,J16-17,65.74,67.5,160,-170,175,,175,120,-125,-125,,120,180,190,-200,,190,485,SBD,
1,Julio Villena,M,2005-08-06,Argentina,Raw,J16-17,71.56,75,120,130,-135,,130,60,75,-82.5,,75,160,170,-175,,170,375,SBD,
2,Lautaro Beltran,M,2004-07-28,Argentina,Raw,J16-17,72.98,75,115,122.5,-130,,122.5,85,-92.5,-92.5,,85,135,150,160,,160,367.5,SBD,
1,Facundo Montiel,M,2004-08-09,Argentina,Raw,J16-17,135.18,140,225,235,245,,245,115,120,-122.5,,120,270,285,-300,,285,650,SBD,
NS,Agustin Milone,M,2002-10-30,Argentina,Raw,J18-19,,,,,,,,,,,,,,,,,,,SBD,
NS,Ignacio Benitez Ferro,M,2003-03-21,Argentina,Raw,J18-19,,,,,,,,,,,,,,,,,,,SBD,
1,Enzo Ivan Acevedo,M,2002-09-02,Argentina,Raw,J18-19,66.44,67.5,175,190,-197.5,,190,107.5,115,-122.5,,115,187.5,202.5,210,-217.5,210,515,SBD,RONIN
1,Fabricio Nahuel Ruarte Hirch,M,2003-03-11,Argentina,Raw,J18-19,74.6,75,160,170,185.5,,185.5,105,117.5,-127.5,,117.5,190,210,220,-225,220,523,SBD,
2,Gonzalo Morales,M,2003-01-21,Argentina,Raw,J18-19,73.98,75,155,170,-185,,170,95,102.5,-107.5,,102.5,195,205,212.5,,212.5,485,SBD,
3,Lisandro Cubas,M,2003-03-25,Argentina,Raw,J18-19,74.06,75,-150,155,-165,,155,80,-87.5,-87.5,,80,200,215,-222.5,,215,450,SBD,
4,Jose Zeballos,M,2004-03-16,Argentina,Raw,J18-19,69.18,75,130,140,-155,,140,95,-102.5,-102.5,,95,-170,185,200,,200,435,SBD,
5,Lautaro Paez,M,2003-01-19,Argentina,Raw,J18-19,74.64,75,-145,-155,155,,155,75,80,-85,,80,170,185,-202.5,,185,420,SBD,
1,Tomas Gonzalez,M,2002-10-04,Argentina,Raw,J18-19,80.78,82.5,-160,-160,160,,160,100,-107.5,-107.5,,100,200,212.5,-222.5,,212.5,472.5,SBD,POWERLIFTING SANTIAGO
2,Fabian Amorena,M,2003-11-21,Argentina,Raw,J18-19,80.96,82.5,160,170,-180,,170,82.5,87.5,-90,,87.5,190,205,215,-220,215,472.5,SBD,
1,Maximiliano Zeballos Voss,M,2002-12-18,Argentina,Raw,J18-19,88.92,90,200,220,-230,,220,145,-155,-155,,145,240,-250,-250,,240,605,SBD,RONIN
2,Facundo Rodriguez Kohli,M,2003-06-10,Argentina,Raw,J18-19,86.4,90,210,220,-230,,220,155,-165,-165,,155,210,-212.5,-240,,210,585,SBD,
1,Alexander Fabian Diaz Abregu,M,2002-10-26,Argentina,Raw,J18-19,92.86,100,180,200,-210,,200,100,107.5,-110,,107.5,200,215,-230,,215,522.5,SBD,
NS,Marcos Sequeira,M,1999-07-08,Argentina,Raw,J20-23,,,,,,,,,,,,,,,,,,,SBD,
1,Lucas Pedro,M,2002-07-07,Argentina,Raw,J20-23,59.9,60,100,107.5,115,,115,65,-75,77.5,,77.5,120,135,145,,145,337.5,SBD,
1,Salvador Valentin Zeoliti Mariconda,M,2000-02-05,,Raw,J20-23,66.5,67.5,170,180,190,,190,100,-110,110,,110,225,240,250.5,,250.5,550.5,SBD,
2,Gabriel Orbe,M,2000-08-27,Argentina,Raw,J20-23,67.48,67.5,170,185,-195,,185,107.5,115,123,,123,220,235,242.5,,242.5,550.5,SBD,
3,Leonardo Quiñones,M,1999-07-11,,Raw,J20-23,65.5,67.5,170,180,-185,,180,95,-102.5,,,95,-195,205,215,,215,490,SBD,
4,Argañaras Franco,M,2002-02-22,Argentina,Raw,J20-23,65.56,67.5,142.5,150,-157.5,,150,-107.5,115,-122.5,,115,215,-232.5,-237.5,,215,480,SBD,POWERLIFTING SANTIAGO
1,Alexis Zeine,M,1999-05-03,Argentina,Raw,J20-23,74.08,75,180,190,200,,200,130,135,140,,140,215,230,240,,240,580,SBD,
2,Facundo Omar Ledesma,M,2001-01-22,Argentina,Raw,J20-23,70.94,75,150,160,170,,170,117.5,122.5,,,122.5,190,205,215,,215,507.5,SBD,
1,Ulises Tobias Escobar,M,1999-01-15,Argentina,Raw,J20-23,87.1,90,195,205,-215,,205,-102.5,107.5,112.5,,112.5,230,245,-252.5,,245,562.5,SBD,
2,Gonzalo Ivan Fernandez,M,2002-01-25,Argentina,Raw,J20-23,89.1,90,170,180,190,,190,107.5,112.5,117.5,,117.5,205,215,220,,220,527.5,SBD,
3,Gianfranco Dell'Arte,M,2001-01-29,Argentina,Raw,J20-23,89.24,90,170,180,-200,,180,100,105,107.5,,107.5,190,200,210,,210,497.5,SBD,
4,Joaquin Fiori,M,2000-04-17,Argentina,Raw,J20-23,87.68,90,-185,190,-195,,190,102.5,-107.5,-110,,102.5,190,-200,,,190,482.5,SBD,
5,Diego Fernandez,M,2000-06-30,Argentina,Raw,J20-23,86.94,90,145,-155,165,,165,95,100,-105,,100,180,190,200,,200,465,SBD,
1,Cristian Leonardo Bazzi,M,2000-06-14,Argentina,Raw,J20-23,109.94,110,220,235,250,,250,140,150,155,,155,260,275,280,,280,685,SBD,
2,Diego Sanagua,M,2000-02-22,Argentina,Raw,J20-23,104.76,110,210,230,-245,,230,130,-140,-140,,130,-290,-300,300,,300,660,SBD,POWERLIFTING SANTIAGO
3,Fabricio Mora,M,2000-10-18,Argentina,Raw,J20-23,108.76,110,235,242.5,-250,,242.5,120,125,-130,,125,260,275,285,,285,652.5,SBD,RONIN
4,Ramiro Padilla,M,2001-07-08,Argentina,Raw,J20-23,106.2,110,210,225,235,,235,130,140,-147.5,,140,260,-275,-275,,260,635,SBD,RONIN
5,Owen Masson,M,1999-11-29,Argentina,Raw,J20-23,103.78,110,215,225,-230,,225,120,132.5,-145,,132.5,230,240,-250,,240,597.5,SBD,
1,Facundo Gallardo,M,1999-01-22,Argentina,Raw,J20-23,121.84,125,230,242.5,-250,,242.5,145,152.5,-160,,152.5,275,285,-300,,285,680,SBD,RONIN
1,Gustavo Mendez,M,1998-11-24,Argentina,Raw,J20-23,133.9,140,185,195,207.5,,207.5,110,-115,-115,,110,220,230,-240,,230,547.5,SBD,
1,Diego Orlando Villagra,M,1979-05-10,,Raw,M40-44,76.18,82.5,120,-125,-125,,120,-80,80,-87.5,,80,140,147.5,150,,150,350,SBD,
1,Alberto David Gimenez,M,1981-03-01,Argentina,Raw,M40-44,105.26,110,220,230,240,,240,155,162.5,-170,,162.5,275,-290,290,-300,290,692.5,SBD,
1,Ricardo Sanchez,M,1976-11-03,Argentina,Raw,M45-49,79.62,82.5,165,175,-185,,175,112.5,117.5,-120,,117.5,185,195,200,,200,492.5,SBD,
1,Carlos Labonia,M,1962-09-13,Argentina,Raw,M60-64,94.32,100,125,132.5,140,,140,85,92.5,100,,100,173,187.5,-200,,187.5,427.5,SBD,
NS,Alejandro Rivadeo,M,1992-10-18,Argentina,Raw,Open,,,,,,,,,,,,,,,,,,,SBD,
NS,Elias Pereyro,M,1992-06-30,Argentina,Raw,Open,,,,,,,,,,,,,,,,,,,SBD,
NS,Franco Jimenez Ochoa,M,1992-12-15,,Raw,Open,,,,,,,,,,,,,,,,,,,SBD,POWERLIFTING SANTIAGO
NS,Iván Silva,M,1993-12-29,Argentina,Raw,Open,,,,,,,,,,,,,,,,,,,SBD,
NS,Juan Manuel Vallarino,M,1995-04-26,Argentina,Raw,Open,,,,,,,,,,,,,,,,,,,SBD,
NS,Lucas Saavedra,M,1985-11-29,Argentina,Raw,Open,,,,,,,,,,,,,,,,,,,SBD,
NS,Marcelo Velozo,M,1977-04-24,,Raw,Open,,,,,,,,,,,,,,,,,,,SBD,
1,Adriel Isaias Cardozo,M,1998-05-24,Argentina,Raw,Open,66.94,67.5,160,-170,175,,175,120,127.5,-130.5,,127.5,212.5,227.5,-232.5,,227.5,530,SBD,
2,Matias Ezequiel Alasa,M,1997-08-08,Argentina,Raw,Open,66.22,67.5,-165,177.5,-187.5,,177.5,92.5,-100,100,,100,185,200,215,,215,492.5,SBD,
3,Federico Ortiz,M,1991-05-15,Argentina,Raw,Open,65.98,67.5,155,167.5,-175,,167.5,-95,97.5,107.5,,107.5,190,200,-217.5,,200,475,SBD,
4,Brian Delgado,M,1996-04-20,Argentina,Raw,Open,65.72,67.5,140,150,-160,,150,100,-110,-110,,100,190,200,210,,210,460,SBD,
5,Facundo Quevedo,M,1998-07-06,Argentina,Raw,Open,64.72,67.5,150,160,-170,,160,95,-100,-100,,95,190,-200,-202.5,,190,445,SBD,
6,Marcos Antonio Novoa,M,1998-08-13,Argentina,Raw,Open,61.6,67.5,120,130,-145,,130,70,80,-90,,80,140,150,160,,160,370,SBD,
1,Juan Manuel Iglesias,M,1993-05-05,Argentina,Raw,Open,74.36,75,190,200,210,,210,130,137.5,-142.5,,137.5,180,200,220,,220,567.5,SBD,
2,Facundo Daniel Orrico,M,1997-11-30,Argentina,Raw,Open,74.04,75,170,-190,190,,190,105,115,-120,,115,210,220,-235,,220,525,SBD,POWERLIFTING SANTIAGO
3,David Martin Leiva Folonier,M,1995-08-17,Argentina,Raw,Open,73.14,75,140,155,160,,160,90,100,-105,,100,200,210,220,,220,480,SBD,
4,Matias Gabriel Medina,M,1997-06-08,Argentina,Raw,Open,73.22,75,-170,-175,175,,175,115,120,-125,,120,180,-195,-202.5,,180,475,SBD,
5,Esteban Alegre,M,1986-05-27,Argentina,Raw,Open,74.04,75,150,-160,160,,160,100,110,-112.5,,110,180,190,-200,,190,460,SBD,
6,David Zerpa,M,1991-02-11,Argentina,Raw,Open,73.7,75,130,140,145,,145,95,-105,-105,,95,190,200,205,,205,445,SBD,
7,Esteban Morales,M,1997-08-26,Argentina,Raw,Open,70.8,75,140,150,155,,155,80,85,90,,90,160,170,180,,180,425,SBD,
8,Francisco Contreras,M,1992-04-01,Argentina,Raw,Open,74.3,75,-120,130,135,,135,-80,87.5,92.5,,92.5,160,175,185,,185,412.5,SBD,
DQ,Facundo Tevez,M,1995-02-03,Argentina,Raw,Open,73.32,75,-185,-185,-185,,,,,,,,,,,,,,SBD,POWERLIFTING SANTIAGO
1,Marcos Velozo,M,1977-04-24,Argentina,Raw,Open,77.88,82.5,225,240,250,,250,120,-135,,,120,265,280,300,305,300,670,SBD,
2,Yefirson Arteaga,M,1989-06-25,Argentina,Raw,Open,81.34,82.5,-215,220,230,,230,140,147.5,-153,,147.5,260,-275,-275,,260,637.5,SBD,
3,Gonzalo Garcia,M,1995-06-15,Argentina,Raw,Open,81.16,82.5,-230,230,-245,,230,125,-132.5,-132.5,,125,280,-290,-297.5,,280,635,SBD,RONIN
4,Franco Jimenez Ochoa,M,1992-12-15,Argentina,Raw,Open,81.06,82.5,175,-190,197.5,,197.5,127.5,135,-140,,135,245,257.5,-270,,257.5,590,SBD,POWERLIFTING SANTIAGO
5,Joan Gonzalez,M,1991-10-01,Argentina,Raw,Open,79.5,82.5,190,-205,-210,,190,135,-142.5,142.5,,142.5,-240,-252.5,252.5,,252.5,585,SBD,RONIN
6,Francisco Exequiel Sandoval Galvan,M,1997-05-05,Argentina,Raw,Open,81.26,82.5,185,-200,210,,210,100,107.5,-110,,107.5,230,240,245,,245,562.5,SBD,
7,Santiago Sadir,M,1997-08-22,Argentina,Raw,Open,81.12,82.5,170,200,210,,210,110,120,-122.5,,120,230,-250,-250,,230,560,SBD,
8,Leandro Martin Gomis,M,1994-01-22,Argentina,Raw,Open,81.6,82.5,195,207.5,-215,,207.5,120,127.5,-132.5,,127.5,225,-240,-240,,225,560,SBD,
9,Ivan Chiriñon,M,1993-12-24,Argentina,Raw,Open,75.96,82.5,190,-205,-205,,190,-120,127.5,-135,,127.5,225,237.5,-250,,237.5,555,SBD,
10,Lucas Risso,M,1993-09-30,Argentina,Raw,Open,77.56,82.5,170,180,-185,,180,105,110,-115,,110,225,240,-250,,240,530,SBD,
11,Emiliano Barreiro,M,1996-05-01,Argentina,Raw,Open,81,82.5,160,172.5,-185,,172.5,125,130,135,,135,200,210,220,,220,527.5,SBD,
12,Walter Hurtado,M,1995-07-10,Argentina,Raw,Open,81.46,82.5,185,192.5,195,,195,-110,110,-112.5,,110,205,215,220,,220,525,SBD,
13,Maximiliano Barrionuevo,M,1990-03-14,Argentina,Raw,Open,80.42,82.5,-175,-180,180,,180,105,110,-112.5,,110,210,220,-225,,220,510,SBD,
14,Luciano Mangiarotti,M,1987-04-12,Argentina,Raw,Open,79.96,82.5,165,170,175,,175,110,115,120,,120,190,200,-205,,200,495,SBD,
15,Hernan Aguilar,M,,Argentina,Raw,Open,81.4,82.5,170,180,195,,195,100,-110,-110,,100,90,200,-220,,200,495,SBD,
1,Erik Gaston Mateyka,M,1993-06-13,Argentina,Raw,Open,87.72,90,230,250.5,260,,260,152.5,163,170,,170,280,295,-305,,295,725,SBD,
2,Gonzalo Gabriel Repetto,M,1995-06-17,Argentina,Raw,Open,89.38,90,210,220,230,,230,150,155,160,,160,265,280.5,-290,,280.5,670.5,SBD,
3,Jose Manuel Egues,M,1985-07-27,Argentina,Raw,Open,89.74,90,232.5,242.5,250,,250,140,145,150,,150,242.5,-262.5,,,242.5,642.5,SBD,
4,Sebastian Santos,M,1996-05-19,Argentina,Raw,Open,87.82,90,180,190,-210,,190,132.5,140,-147.5,,140,240,255,-270,,255,585,SBD,RONIN
5,Lucas Trevisan,M,1992-12-19,Argentina,Raw,Open,88.36,90,190,200,-210,,200,130,135,-140,,135,240,250,-255,,250,585,SBD,
6,Alejandro Sabas,M,1985-12-04,Argentina,Raw,Open,85.24,90,180,200,-205,,200,120,127.5,-135,,127.5,235,245,-255,,245,572.5,SBD,
7,Gonzalo Araoz,M,1991-09-14,Argentina,Raw,Open,88.42,90,-150,150,160,,160,110,115,120,,120,-200,200,-210,,200,480,SBD,
8,Eduardo Francisco Vicente Godoy,M,1987-12-08,Argentina,Raw,Open,86.84,90,155,-175,-180,,155,80,95,-100,,95,200,-215,-220,,200,450,SBD,
1,Ivan Labonia Petravich,M,1989-11-14,Argentina,Raw,Open,94.6,100,230,,,,230,170.5,,,,170.5,275,305,-310,,305,705.5,SBD,RONIN
2,Federico Escobar,M,1986-04-24,Argentina,Raw,Open,96.96,100,225,237.5,-250,,237.5,120,127.5,132.5,,132.5,250,265,-275,,265,635,SBD,
3,Juan Ignacio Avancini,M,1995-12-01,Argentina,Raw,Open,93.7,100,190,200,220,,220,120,130,-140,,130,-240,250,260,,260,610,SBD,
4,Marcos Di Santos,M,1992-08-02,Argentina,Raw,Open,97.68,100,190,-205,-205,,190,165,175,180,,180,230,240,-245,,240,610,SBD,
5,Leonel Emir Nacif,M,1998-06-07,Argentina,Raw,Open,93.72,100,195,205,215,,215,120,-125,125,,125,240,250,260,,260,600,SBD,
6,Juan Francisco Avila,M,1993-04-24,Argentina,Raw,Open,92.22,100,200,-210,210,,210,120,-125,125,,125,225,235,245,,245,580,SBD,
7,Rodrigo Roldan,M,1989-12-21,Argentina,Raw,Open,99.32,100,192.5,205,-215,,205,110,117.5,-122.5,,117.5,230,250,-262.5,,250,572.5,SBD,
8,Leonardo Patricio Muñoz,M,1993-10-25,Argentina,Raw,Open,98.1,100,190,200,-210,,200,115,120,125,,125,-220,230,240,,240,565,SBD,
9,Jonatan Bentos,M,1991-11-15,Argentina,Raw,Open,96.76,100,210,-220,-220,,210,117.5,122.5,-125,,122.5,205,215,-222.5,,215,547.5,SBD,
10,Sebastian Pinelli,M,1991-07-19,Argentina,Raw,Open,92.72,100,180,190,200,,200,102.5,110,120,,120,180,195,-207.5,,195,515,SBD,
11,Daniel Alejandro Diaz,M,1994-05-25,Argentina,Raw,Open,99.16,100,160,-170,180,,180,95,105,-110,,105,190,-200,210,,210,495,SBD,
12,Cristian Saul Mendoza Mora,M,1988-10-25,Argentina,Raw,Open,96.72,100,180,-190,190,,190,85,90,-95,,90,190,210,-225,,210,490,SBD,
13,Emiliano Orellana,M,1990-02-13,Argentina,Raw,Open,99.44,100,-170,175,-182.5,,175,102.5,105,-110,,105,185,-195,-205,,185,465,SBD,
14,Demetrio Kargazin,M,1985-02-25,Argentina,Raw,Open,94.18,100,150,162.5,-170,,162.5,105,112.5,-115,,112.5,150,160,-170,,160,435,SBD,
DQ,Rodrigo Carrera,M,1990-06-07,Argentina,Raw,Open,95.64,100,190,200,-205,,200,130,-135,-135,,130,-230,-240,,,,,SBD,
1,Juan Ignacio Santa Rosa,M,1986-09-30,Argentina,Raw,Open,104.12,110,230,-240,240,,240,165,172.5,177.5,,177.5,250,262.5,267.5,271,267.5,685,SBD,
2,Federico Pedrozo,M,1991-03-14,Argentina,Raw,Open,108.78,110,235,245,255,,255,150,157.5,162.5,,162.5,240,250,260,270.5,260,677.5,SBD,
3,Gustavo Negro Hang,M,1994-12-19,Argentina,Raw,Open,109,110,225,235,240,,240,110,125,-130,,125,240,260,-270,,260,625,SBD,
4,Axel Román,M,1992-10-02,Argentina,Raw,Open,106.94,110,210,220,230,,230,120,127.5,135,,135,225,240,-250,,240,605,SBD,
5,Cristian Escobar,M,1988-07-18,Argentina,Raw,Open,108.1,110,220,230,-240,,230,110,115,120,,120,240,250,-255,,250,600,SBD,
6,Lucas Trisi,M,1988-11-14,Argentina,Raw,Open,106.68,110,170,180,-190,,180,120,130,132.5,,132.5,230,250,-270,,250,562.5,SBD,
1,Flavio Emmanuel Viotti,M,1995-11-02,,Raw,Open,124.94,125,210,230,-242.5,,230,150,157.5,162.5,,162.5,-270,270,290,300,290,682.5,SBD,
2,Facundo Gallardo,M,1999-01-22,Argentina,Raw,Open,121.84,125,230,242.5,-250,,242.5,145,152.5,-160,,152.5,275,285,-300,,285,680,SBD,RONIN
1,Nicolas Di Francesco,M,1997-09-19,Argentina,Raw,Open,132.66,140,240,250,260,,260,125,135,142.5,,142.5,240,250,255,,255,657.5,SBD,
1,Franco Jose Leo Menazzi,M,1997-12-10,Argentina,Raw,Open,154.83,140+,295,310,320,,320,-180,180,-195,,180,325,-350,-362.5,,325,825,SBD,
2,Mauro Ramos,M,1996-05-21,Argentina,Raw,Open,141.32,140+,125,130,147.5,,147.5,95,102.5,-110,,102.5,130,135,140,,140,390,SBD,
1,Fernando Gadea Ruppel,M,2006-09-27,Argentina,Wraps,J13-15,50.22,52,115,122.5,-132.5,,122.5,65,70,-70.5,,70,140.5,145,147.5,150,147.5,340,SBD,
1,Angel Medrano,M,2007-04-26,Argentina,Wraps,J13-15,57.18,60,-135,135,-137.5,,135,75,80,-85,,80,-140,140,147.5,,147.5,362.5,SBD,
1,Ivan Frei,M,2006-11-24,Argentina,Wraps,J13-15,98.66,100,-180,180,-190,,180,80,90,-105,,90,180,190,-200,,190,460,SBD,BERTOTTO
1,Daniel Gatica,M,2005-08-06,Argentina,Wraps,J16-17,74.92,75,-165,165,175,,175,90,100,-105,,100,180,-188,-188,,180,455,SBD,BERTOTTO
1,Angel Maidana,M,2004-08-05,Argentina,Wraps,J16-17,109.4,110,170,180,-185,,180,100,105,-107.5,,105,190,200,-205,,200,485,SBD,BERTOTTO
1,Tomas Valentin Buchamer,M,2003-01-15,Argentina,Wraps,J18-19,104.36,110,175,185,-200.5,,185,90,100,-110,,100,170,180,-205,,180,465,SBD,
1,Tomas Muñoz,M,2002-01-13,Argentina,Wraps,J20-23,59.46,60,120,122.5,125,,125,70,75,-77.5,,75,160,173,,,173,373,SBD,BERTOTTO
DQ,Leonel Tallapietra,M,2000-07-25,,Wraps,J20-23,63.68,67.5,-130,-130,-130,,,60,-67.5,67.5,,67.5,150,160,-175,,160,,SBD,
1,Tomas Otero,M,1999-08-10,Argentina,Wraps,J20-23,71.84,75,215,-225,230.5,,230.5,-115,120,130,-136,130,200,210,220,,220,580.5,SBD,EL CLUB DE LA FUERZA
1,Marcos Marcellino,M,1999-08-10,Argentina,Wraps,J20-23,81.28,82.5,227.5,245,255,,255,135,147.5,-157.5,,147.5,225,240,247.5,252.5,247.5,650,SBD,
2,Juan Fontana,M,1999-12-09,Argentina,Wraps,J20-23,78.74,82.5,235,250,260,-265,260,140,150,152.5,,152.5,205,215,-230,,215,627.5,SBD,EL CLUB DE LA FUERZA
3,Braian Acosta,M,2000-10-13,,Wraps,J20-23,80.86,82.5,200,220,-235,,220,100,110,117.5,,117.5,200,220,232.5,,232.5,570,SBD,BERTOTTO
4,Julian Lago,M,1999-03-27,,Wraps,J20-23,81.22,82.5,160,170,180,,180,95,105,-110,,105,195,207.5,-212.5,,207.5,492.5,SBD,
5,Lautaro Santiago Aichino,M,1999-12-04,Argentina,Wraps,J20-23,80.84,82.5,-120,120,130,,130,100,-105,-105,,100,170,-180,-185,,170,400,SBD,
1,Gabriel Andres Martinez Montoya,M,1999-10-13,Argentina,Wraps,J20-23,87.8,90,225,235,240.5,,240.5,110,117.5,122.5,,122.5,230,240.5,-250,,240.5,603.5,SBD,
1,Fabrizio Fantozzi,M,1998-09-18,Argentina,Wraps,J20-23,107.98,110,250,262.5,-270,,262.5,150,160,-168,,160,285,300,310.5,,310.5,733,SBD,
2,Leonel Solis,M,1999-04-20,Argentina,Wraps,J20-23,106.72,110,195,200,207.5,,207.5,115,120,-122.5,,120,-195,195,205,,205,532.5,SBD,
1,Franco Damian Ferreyra,M,1980-10-29,Argentina,Wraps,M40-44,62.3,67.5,-140,-150,155,,155,90,-97.5,-105,,90,185,200,210,,210,455,SBD,
2,Roberto Poblete,M,1981-06-19,Argentina,Wraps,M40-44,66.86,67.5,110,120,130,,130,60,-67.5,-70,,60,125,135,145,,145,335,SBD,
1,Marco Toconás,M,1982-05-17,Argentina,Wraps,M40-44,82.26,82.5,210,220,230,,230,125,130,-140,,130,210,220,230,236,230,590,SBD,
2,Ramiro Mosquera,M,1979-01-26,Argentina,Wraps,M40-44,81.14,82.5,200,215,-225,,215,115,122.5,-130,,122.5,185,205,215,,215,552.5,SBD,
1,Hugo Andres,M,1979-12-26,Argentina,Wraps,M40-44,108.38,110,285,300.5,-315,,300.5,-160,160,170,,170,275,285,300,,300,770.5,SBD,
DQ,Víctor Giles,M,1981-08-07,Argentina,Wraps,M40-44,113.46,125,-260,-260,-260,,,100,180,,,180,260,280,-300,,280,,SBD,
1,Chien-Hwa Chen,M,1976-09-16,Argentina,Wraps,M45-49,85.16,90,190,200,205,,205,130,140,145,,145,200,210,220.5,,220.5,570.5,SBD,
DQ,Fernando Ruiz,M,1969-12-13,Argentina,Wraps,M50-54,88.74,90,-185,-190,-200,,,-110,,,,,-190,,,,,,SBD,
1,Carlos Garelli,M,1971-09-24,Argentina,Wraps,M50-54,97.06,100,205,-215,-215,,205,100,107.5,-112.5,,107.5,170,180,190,,190,502.5,SBD,
1,Christian Martinez,M,1970-01-20,Argentina,Wraps,M50-54,160.8,140+,240,260,270,,270,170,-185,185,,185,270,-290,290,,290,745,SBD,
1,Daniel Matamala,M,1964-12-01,Argentina,Wraps,M55-59,75.84,82.5,120,140,-155,,140,80,90,-102.5,,90,140,160,-178,,160,390,SBD,
NS,Fabián Izumigawa,M,1984-06-25,Argentina,Wraps,Open,,,,,,,,,,,,,,,,,,,SBD,
NS,Gabriel Brizuela,M,1991-06-25,Argentina,Wraps,Open,,,,,,,,,,,,,,,,,,,SBD,
NS,Hernan Erazo,M,1987-01-10,Argentina,Wraps,Open,,,,,,,,,,,,,,,,,,,SBD,
NS,Nicolaz Alcaraz,M,1992-06-07,Argentina,Wraps,Open,,,,,,,,,,,,,,,,,,,SBD,
NS,Renato Balbuena,M,1987-02-24,Argentina,Wraps,Open,,,,,,,,,,,,,,,,,,,SBD,
1,Pablo Gomez,M,1989-07-04,Argentina,Wraps,Open,67.42,67.5,215,230,245,,245,100,107.5,110,,110,200,-210,210,,210,565,SBD,EL CLUB DE LA FUERZA
2,Ricardo Bustamante,M,1989-04-22,Argentina,Wraps,Open,66.48,67.5,190,215,230,-245.5,230,117.5,125,-135,,125,170,180,-200,,180,535,SBD,
DQ,Jorge Nader,M,1989-06-17,Argentina,Wraps,Open,66.16,67.5,165,175,-187.5,,175,-102.5,-110,-110,,,-172.5,,,,,,SBD,
1,Gustavo Rosales,M,1991-07-07,Argentina,Wraps,Open,74.02,75,210,220,225,,225,132.5,140,-145,,140,230,-245.5,-245.5,,230,595,SBD,
2,Gustavo Peña,M,1992-07-15,Argentina,Wraps,Open,73.3,75,-205,-220,220,,220,125,132.5,-137.5,,132.5,205,-217.5,220,,220,572.5,SBD,
3,Matias Saez,M,1991-05-22,Argentina,Wraps,Open,72.5,75,-190,190,200,,200,110,-120,-120,,110,220,240,-245,,240,550,SBD,
4,Juan Manuel Costello,M,1989-03-17,Argentina,Wraps,Open,73.78,75,185,200,-210,,200,115,-122.5,-122.5,,115,220,235,-246,,235,550,SBD,
5,Cristian Urdaniz,M,1987-08-28,Argentina,Wraps,Open,74.18,75,160,-170,-170,,160,100,-107.5,-107.5,,100,180,-195,205,,205,465,SBD,
6,Federico Pettinato,M,1991-06-06,,Wraps,Open,73.46,75,155,-170,170,,170,85,90,-95,,90,200,-215,-215,,200,460,SBD,
7,Guillermo Julio Rossi,M,1991-09-20,Argentina,Wraps,Open,73.78,75,165,-180,-180,,165,100,110,117.5,,117.5,160,175,-182.5,,175,457.5,SBD,
8,Ariel Valenzuela,M,1995-04-10,Argentina,Wraps,Open,70.38,75,150,160,-170,,160,90,-105,105,,105,150,165,190,,190,455,SBD,
1,Leandro Albornoz,M,1992-09-15,Argentina,Wraps,Open,79.58,82.5,260,270,285,-300.5,285,150,157.5,162.5,,162.5,260,275,282.5,,282.5,730,SBD,
2,Lenin Hernan La Rosa Farfan,M,1985-04-23,Argentina,Wraps,Open,77.5,82.5,-250,250,-280,,250,140,160,170,,170,250,267.5,272.5,,272.5,692.5,SBD,
3,Jonatan Chiappa,M,1992-03-12,Argentina,Wraps,Open,80.78,82.5,230,-240,240,,240,140,145,150,,150,-250,250,265,-283,265,655,SBD,
4,Pablo Baggio,M,1991-03-05,Argentina,Wraps,Open,81.64,82.5,230,240,-247.5,,240,147.5,152.5,-155,,152.5,230,240,-250,,240,632.5,SBD,
5,Pablo Gustavo Zuazquita,M,1990-04-19,,Wraps,Open,81.8,82.5,190,220,-240,,220,115,135,-145,,135,190,220,-240,,220,575,SBD,
6,Lucas Reynoso,M,1998-07-06,Argentina,Wraps,Open,81.92,82.5,180,190,200,,200,110,115,120,,120,190,205,215,,215,535,SBD,
7,Federico Lopez,M,1990-11-07,Argentina,Wraps,Open,81.36,82.5,170,185,-200,,185,110,117.5,120,,120,200,215,220,,220,525,SBD,
8,Emilio Fuentes,M,,Argentina,Wraps,Open,82.42,82.5,160,170,180,,180,110,125,132.5,,132.5,170,185,195,,195,507.5,SBD,
9,Federico Plinski,M,1985-01-05,Argentina,Wraps,Open,79.74,82.5,150,160,170,,170,95,100,105,,105,170,180,192.5,,192.5,467.5,SBD,
1,Ezequiel Uguet,M,1993-03-03,Argentina,Wraps,Open,88.96,90,260,275,282.5,290,282.5,162.5,170,173,-175,173,-260,260,-290,,260,715.5,SBD,EL CLUB DE LA FUERZA
2,Jose-Luis Martinez,M,1984-02-12,Argentina,Wraps,Open,88.56,90,-260,270,-280,,270,140,150,-155,,150,220,-230,-235,,220,640,SBD,
3,Alessandro Cuccaro,M,1990-06-21,Argentina,Wraps,Open,89.76,90,240,-250,250,,250,120,130,-140,,130,230,242.5,252.5,,252.5,632.5,SBD,
4,Ignacio Vaca,M,1996-06-20,Argentina,Wraps,Open,87.98,90,222.5,235,-250,,235,112.5,122.5,127.5,,127.5,226,235,252.5,,252.5,615,SBD,
5,Ezequiel del Rio,M,1987-11-21,Argentina,Wraps,Open,88.14,90,210,225,240,,240,125,135,-147.5,,135,210,225,-230,,225,600,SBD,
6,Daniel Enrique Garcia,M,,Argentina,Wraps,Open,89.56,90,195,205,212.5,,212.5,125,130,-135,,130,245,-255,-257.5,,245,587.5,SBD,BERTOTTO
7,Nicolas Medina,M,1982-12-01,Argentina,Wraps,Open,88.88,90,165,-175,175,,175,122.5,130,137.5,,137.5,180,200,-205,,200,512.5,SBD,
DQ,Damián Gomez,M,1993-09-28,Argentina,Wraps,Open,86.44,90,-240,-240,-240,,,150,160,170,,170,230,-250,,,230,,SBD,
DQ,Nicolás Alcaráz,M,1992-06-07,,Wraps,Open,88.48,90,-200,-200,-200,,,-100,,,,,-200,-200,,,,,SBD,
1,Alan Aparicio,M,1996-08-08,Argentina,Wraps,Open,98.74,100,300,-315,315,,315,150,160,-165,,160,315,327.5,-337.5,,327.5,802.5,SBD,EL CLUB DE LA FUERZA
2,Guido Gola,M,1996-05-11,Argentina,Wraps,Open,97.24,100,280,-300,-300.5,,280,180,190,200,,200,285,305,-322.5,,305,785,SBD,EL CLUB DE LA FUERZA
3,Alejo Philipp,M,1994-12-18,Argentina,Wraps,Open,96.8,100,255,270,285,,285,160,170,177.5,,177.5,260,275,-290,,275,737.5,SBD,
4,Sergio Gabriel Iglesias,M,1986-05-22,Argentina,Wraps,Open,99.9,100,260,280,-295,,280,150,160,-170,,160,260,280,295,,295,735,SBD,
5,Juan Carlos Volpatti,M,1983-03-24,Argentina,Wraps,Open,97.3,100,240,250,-270,,250,130,145,152.5,,152.5,250,265,,,265,667.5,SBD,BERTOTTO
6,Juan Manuel Urquiza,M,1995-11-12,Argentina,Wraps,Open,92.32,100,-200,220,250,,250,-140,-140,140,,140,240,260,-275,,260,650,SBD,
7,Martin Nion,M,1985-05-04,Argentina,Wraps,Open,92.26,100,190,200,210,,210,-110,115,122.5,,122.5,220,230,-240,,230,562.5,SBD,
8,Ignacio Nicolas Centurion,M,1996-01-05,Argentina,Wraps,Open,97.94,100,150,165,-170,,165,100,110,120,,120,190,205,-215,,205,490,SBD,
1,Federico Meijome,M,1998-06-25,Argentina,Wraps,Open,109.94,110,370,387.5,-400,,387.5,185,190,195,,195,310,320,330,,330,912.5,SBD,
2,Sergio Martin Cousau,M,1987-03-04,Argentina,Wraps,Open,102.2,110,260,-275,-275,,260,150,-160,160,,160,280,295,307.5,,307.5,727.5,SBD,
1,Facundo Presta,M,1993-07-07,,Wraps,Open,123.08,125,290,305,315,,315,190,200,-205,,200,315,330,342.5,345,342.5,857.5,SBD,EL CLUB DE LA FUERZA
2,Albaro Ahumada Quintana,M,1989-03-27,Argentina,Wraps,Open,122.82,125,-220,220,240,,240,140,-155,-155,,140,270,280,-285,,280,660,SBD,
3,Juan Pablo Bezier,M,1989-07-05,Argentina,Wraps,Open,121.94,125,200,215,225,,225,90,95,-100,,95,190,205,215,,215,535,SBD,
1,Lucas Eduardo Bentos,M,1981-11-30,Argentina,Wraps,Open,135.46,140,-270,270,-290,,270,175,183,190,,190,280,300,-315,,300,760,SBD,
2,Nicolas Espinosa,M,1989-05-03,Argentina,Wraps,Open,139.24,140,250,270,290,,290,125,135,-137.5,,135,220,235,240,,240,665,SBD,
1,Emilio Mansilla,M,1984-01-22,Argentina,Wraps,S35-39,113.26,125,230,240,245,,245,145,155,160,,160,270,280,285,,285,690,SBD,
1,Emilio Mansilla,M,1984-01-22,Argentina,Single-ply,S35-39,109.88,110,325,-340,,,325,185,195,,,195,290,300,-310,,300,820,SBD,
NS,Nahuel Condori,M,2001-01-02,Argentina,Raw,J20-23,,,,,,,,,,,,,,,,,,,BD,
NS,Alexis Benjamín Córdoba,M,1997-12-02,,Raw,Open,,,,,,,,,,,,,,,,,,,BD,
DQ,Fernando Manuel Torres,M,1997-03-04,Argentina,Raw,Open,66.04,67.5,,,,,,-85,-85,-85,,,150,165,175,,175,,BD,
1,Benjamin Cordoba,M,1997-12-02,Argentina,Raw,Open,81.54,82.5,,,,,,110,-120,-120,,110,195,-210,-210,,195,305,BD,
1,Facundo Rosso,M,2004-10-29,Argentina,Raw,J16-17,65.74,67.5,,,,,,120,125,-130,,125,,,,,,125,B,
1,Sergio Adrian Barriento,M,1978-09-03,Argentina,Raw,M40-44,81.2,82.5,,,,,,145,150.5,152.5,,152.5,,,,,,152.5,B,
1,Cristian Gutierrez,M,1979-04-03,Argentina,Raw,M40-44,119.06,125,,,,,,180,200,-220,,200,,,,,,200,B,
1,Diego Leonardo Ardizzone,M,1977-06-08,Argentina,Raw,M45-49,65.28,67.5,,,,,,120.5,125,-127.5,,125,,,,,,125,B,
1,Nicolas Quilodran,M,1972-11-05,Argentina,Raw,M45-49,87.88,90,,,,,,90,100,110,,110,,,,,,110,B,
1,Javier Rosso,M,1968-06-07,Argentina,Raw,M50-54,79.22,82.5,,,,,,90,100,-110,,100,,,,,,100,B,
1,Christian Martinez,M,1970-01-20,Argentina,Raw,M50-54,159.74,140+,,,,,,170,180,-200,,180,,,,,,180,B,
1,Sergio Luciano Morales,M,1962-05-01,Argentina,Raw,M60-64,112.62,125,,,,,,140,150,160,-165,160,,,,,,160,B,
1,Ricardo Morales,M,1989-08-17,Argentina,Raw,Open,72.22,75,,,,,,117.5,122.5,-130,,122.5,,,,,,122.5,B,POWERLIFTING SANTIAGO
1,Lucas Rodrigo Alarcon,M,1991-06-08,Argentina,Raw,Open,81.26,82.5,,,,,,115,120,-122.5,,120,,,,,,120,B,
1,Franco Perez,M,1995-02-18,Argentina,Raw,Open,89.3,90,,,,,,150,155,,,155,,,,,,155,B,
2,Matias Pajon,M,1993-06-11,Argentina,Raw,Open,88.5,90,,,,,,120,130,-140,,130,,,,,,130,B,
1,Jose Zeballos,M,2004-03-16,Argentina,Raw,J18-19,69.18,75,,,,,,95,-102.5,-102.5,,95,,,,,,95,B,
DQ,Juan Pablo Medina,M,2001-02-07,Argentina,Single-ply,J20-23,132.32,140,,,,,,-300,-300,-315,,,,,,,,,B,
1,Ignacio Paz,M,1979-03-04,Argentina,Single-ply,M40-44,95.04,100,,,,,,170,180,-190,,180,,,,,,180,B,
1,Josue Britos,M,2003-11-11,Argentina,Raw,J18-19,70.42,75,,,,,,,,,,,140,165,-175,,165,165,D,
1,Rodrigo Sanchez,M,1970-11-13,Argentina,Raw,M50-54,93.9,100,,,,,,,,,,,200,225,235,,235,235,D,
1,Sergio Fabian Cousau,M,1964-03-16,Argentina,Raw,M55-59,82.08,82.5,,,,,,,,,,,150,180,200,,200,200,D,
NS,Andres Roberto Godoy,M,1979-06-02,Argentina,Raw,Open,,,,,,,,,,,,,,,,,,,D,
1,Matías Santa Ana,M,1997-02-05,,Raw,Open,58.16,60,,,,,,,,,,,180,-185,-185,,180,180,D,
1,Rolando Saul Sepulveda,M,1998-02-02,Argentina,Raw,Open,63.94,67.5,,,,,,,,,,,150,160,-175,,160,160,D,
1,Octavio Villanueva,M,1993-08-05,Argentina,Raw,Open,73.52,75,,,,,,,,,,,160,-170,-170,,160,160,D,
1,Gabriel Hermosilla,M,1992-01-07,Argentina,Raw,Open,79.32,82.5,,,,,,,,,,,240,255,-262.5,,255,255,D,
1,Franco Perez,M,1995-02-18,Argentina,Raw,Open,89.3,90,,,,,,,,,,,275.5,285,-290,,285,285,D,
1,Cristian Artero,M,1993-03-16,Argentina,Raw,Open,94.8,100,,,,,,,,,,,255,270,-280,,270,270,D,
1,Javier Sepulveda,M,1986-12-25,Argentina,Raw,Open,107.64,110,,,,,,,,,,,220,225,-250,,225,225,D,
1,Ricardo Adrian Pinilla,M,1986-12-20,Argentina,Raw,Open,117.04,125,,,,,,,,,,,140,147.5,-157.5,,147.5,147.5,D,
NS,Hector Fernando Gonzales,M,1973-07-18,Argentina,Raw,M45-49,,,,,,,,,,,,,,,,,,,D,
