Division,WeightClassKg,Place,Name,Team,BodyweightKg,Best3SquatKg,Best3BenchKg,Best3DeadliftKg,TotalKg,Equipment,Event,Sex,BirthDate
Boys,51.71,1,Jaime Rios #2,Big Lake Reagan County,50.8,142.88,83.91,161.03,387.82,Single-ply,SBD,M,
Boys,51.71,2,Lane Smith,Ozona,51.62,131.54,74.84,133.81,340.19,Single-ply,SBD,M,
Boys,51.71,3,Robert Saldana,Eldorado,47.99,92.99,52.16,117.93,263.08,Single-ply,SBD,M,
Boys,55.79,1,Oliver Cervantes,Crane,54.43,136.08,79.38,142.88,358.34,Single-ply,SBD,M,
Boys,55.79,2,Hector Colon-Rivera,Coahoma,55.34,129.27,61.23,145.15,335.66,Single-ply,SBD,M,
Boys,55.79,3,Xaden Badillo,Ozona,52.62,90.72,52.16,151.95,294.84,Single-ply,SBD,M,
Boys,59.87,1,Brian Lopez,Big Lake Reagan County,59.78,174.63,95.25,158.76,428.64,Single-ply,SBD,M,
Boys,59.87,2,Sergio Gonzalez,Big Lake Reagan County,59.78,149.69,92.99,161.03,403.7,Single-ply,SBD,M,
Boys,59.87,3,Juan Ruiz,Sonora,59.33,142.88,77.11,156.49,376.48,Single-ply,SBD,M,
Boys,59.87,4,Eduardo Gutierrez,Crane,59.87,142.88,79.38,154.22,376.48,Single-ply,SBD,M,
Boys,59.87,5,Adian Villanueva,Sonora,58.97,138.35,79.38,154.22,371.95,Single-ply,SBD,M,
Boys,59.87,6,Ariel Salazar,Sonora,59.33,122.47,54.43,136.08,312.98,Single-ply,SBD,M,
Boys,67.13,1,Josiah Valdez,Crane,67.13,156.49,81.65,188.24,426.38,Single-ply,SBD,M,
Boys,67.13,2,Duarte Vasquez,Sonora,61.69,163.29,86.18,165.56,415.04,Single-ply,SBD,M,
Boys,67.13,3,Styer Bradley,McCamey,67.13,156.49,99.79,154.22,410.5,Single-ply,SBD,M,
Boys,67.13,4,Alex Aguilar #2,Big Lake Reagan County,62.96,151.95,86.18,161.03,399.16,Single-ply,SBD,M,
Boys,67.13,5,Isaias Sanchez,Crane,67.13,147.42,81.65,163.29,392.36,Single-ply,SBD,M,
Boys,67.13,6,Roman Rivero,Big Lake Reagan County,66.68,129.27,65.77,154.22,349.27,Single-ply,SBD,M,
Boys,67.13,7,Xavier Urias,McCamey,67.13,115.67,95.25,136.08,347,Single-ply,SBD,M,
Boys,67.13,8,Ismael Segura,Eldorado,60.33,113.4,70.31,124.74,308.44,Single-ply,SBD,M,
Boys,67.13,9,Damian Martinez,Sonora,61.23,113.4,65.77,108.86,288.03,Single-ply,SBD,M,
Boys,67.13,DQ,Santaigo Hernandez,Eldorado,62.51,145.15,,,,Single-ply,SBD,M,
Boys,74.84,1,David Guerrero,Big Lake Reagan County,72.03,235.87,124.74,195.04,555.65,Single-ply,SBD,M,
Boys,74.84,2,Arnold Vallez,Crane,72.03,179.17,102.06,183.7,464.93,Single-ply,SBD,M,
Boys,74.84,3,Jose Dominguez,Ozona,67.49,172.37,104.33,183.7,460.4,Single-ply,SBD,M,
Boys,74.84,4,Dravon Valenzuela,Big Lake Reagan County,68.49,176.9,86.18,185.97,449.06,Single-ply,SBD,M,
Boys,74.84,5,Jack Oliveira,Mertzon Irion County,73.94,158.76,102.06,181.44,442.25,Single-ply,SBD,M,
Boys,74.84,6,Jeren McDonald,Crane,71.12,174.63,95.25,165.56,435.45,Single-ply,SBD,M,
Boys,74.84,7,Adam Sanchez,Sonora,69.76,158.76,88.45,172.37,419.57,Single-ply,SBD,M,
Boys,74.84,8,Sean Striegler,Coahoma,67.95,151.95,106.59,149.69,408.23,Single-ply,SBD,M,
Boys,74.84,9,Jonathan Lozano,Sonora,69.76,142.88,92.99,131.54,367.41,Single-ply,SBD,M,
Boys,74.84,10,Damian Rains,Coahoma,70.67,142.88,83.91,138.35,365.14,Single-ply,SBD,M,
Boys,74.84,11,Aaron Noriega,Sonora,73.84,145.15,70.31,142.88,358.34,Single-ply,SBD,M,
Boys,74.84,12,Gage Piwetz,Mertzon Irion County,74.84,136.08,74.84,136.08,347,Single-ply,SBD,M,
Boys,74.84,13,Tanner Jones,Monahans,67.95,129.27,72.57,133.81,335.66,Single-ply,SBD,M,
Boys,74.84,14,Marco Martínez,Alpine,71.67,88.45,43.09,104.33,235.87,Single-ply,SBD,M,
Boys,82.1,1,Juan Saucedo,Big Lake Reagan County,80.29,213.19,151.95,208.65,573.79,Single-ply,SBD,M,
Boys,82.1,2,Alex Natera,Alpine,78.83,188.24,122.47,192.78,503.49,Single-ply,SBD,M,
Boys,82.1,3,Ethan Moore #6,Crane,82.1,179.17,79.38,165.56,424.11,Single-ply,SBD,M,
Boys,82.1,4,Enrique Calzada,Mertzon Irion County,79.74,154.22,79.38,167.83,401.43,Single-ply,SBD,M,
Boys,82.1,5,Nick Wright #3,Iraan,76.66,124.74,79.38,147.42,351.53,Single-ply,SBD,M,
Boys,82.1,6,Garrett Porter,Eldorado,77.02,122.47,77.11,122.47,322.05,Single-ply,SBD,M,
Boys,89.81,1,Issahia Valenzuela,Big Lake Reagan County,86.64,219.99,99.79,217.72,537.51,Single-ply,SBD,M,
Boys,89.81,2,Austin Damian,Ozona,88.36,201.85,124.74,197.31,523.9,Single-ply,SBD,M,
Boys,89.81,3,Caden Johnson,McCamey,87.54,188.24,115.67,197.31,501.22,Single-ply,SBD,M,
Boys,89.81,4,Tristan Pineda,McCamey,87.63,188.24,102.06,185.97,476.27,Single-ply,SBD,M,
Boys,89.81,5,Cararino Hernandez,Sonora,86.64,165.56,90.72,181.44,437.72,Single-ply,SBD,M,
Boys,89.81,6,Josh Lackey,Monahans,89.81,165.56,102.06,167.83,435.45,Single-ply,SBD,M,
Boys,89.81,7,Miguel Sanchez,McCamey,88.45,136.08,61.23,142.88,340.19,Single-ply,SBD,M,
Boys,89.81,8,Zach Luna,Eldorado,85.28,102.06,92.99,140.61,335.66,Single-ply,SBD,M,
Boys,89.81,9,Abraham Gonzalez,Iraan,82.92,95.25,74.84,124.74,294.84,Single-ply,SBD,M,
Boys,89.81,DQ,Connor Norton,Big Lake Reagan County,84.37,174.63,81.65,,,Single-ply,SBD,M,
Boys,89.81,DQ,Cesar Garcia,Eldorado,89.81,,,,,Single-ply,SBD,M,
Boys,99.79,1,Paul Walker #2,Crane,97.07,265.35,131.54,224.53,621.42,Single-ply,SBD,M,
Boys,99.79,2,Zack Schneider,Coahoma,98.79,219.99,138.35,229.06,587.4,Single-ply,SBD,M,
Boys,99.79,3,Noel Perez,Big Lake Reagan County,92.08,208.65,117.93,190.51,517.1,Single-ply,SBD,M,
Boys,99.79,4,Ryan Gooch,Alpine,93.44,190.51,117.93,183.7,492.15,Single-ply,SBD,M,
Boys,99.79,5,Elijah Velared,Crane,90.17,183.7,106.59,172.37,462.66,Single-ply,SBD,M,
Boys,99.79,6,Javier Hernandez,Iraan,93.89,181.44,83.91,181.44,446.79,Single-ply,SBD,M,
Boys,99.79,7,Eli Hernandez,Big Lake Reagan County,91.53,174.63,99.79,154.22,428.64,Single-ply,SBD,M,
Boys,99.79,8,Jayboy Martinez,Big Lake Reagan County,95.25,170.1,81.65,167.83,419.57,Single-ply,SBD,M,
Boys,99.79,9,Damien Herrera,Monahans,97.43,138.35,90.72,185.97,415.04,Single-ply,SBD,M,
Boys,99.79,DQ,Isaiah Perez,Big Lake Reagan County,92.08,,,,,Single-ply,SBD,M,
Boys,99.79,DQ,Jon Parks,Mertzon Irion County,94.26,142.88,88.45,,,Single-ply,SBD,M,
Boys,109.77,1,Jadyn Lehde,Crane,108.41,260.82,142.88,201.85,605.55,Single-ply,SBD,M,
Boys,109.77,2,Jayson Pagan,McCamey,109.77,242.67,127.01,210.92,580.6,Single-ply,SBD,M,
Boys,109.77,3,Kyle Coffey #1,Monahans,107.86,219.99,136.08,215.46,571.53,Single-ply,SBD,M,
Boys,109.77,4,Kenneth Ramsey,Monahans,101.15,122.47,83.91,167.83,374.21,Single-ply,SBD,M,
Boys,109.77,5,Seth Parker,Eldorado,108.86,124.74,68.04,145.15,337.93,Single-ply,SBD,M,
Boys,109.77,DQ,Devon Butler,Crane,108.32,235.87,142.88,,,Single-ply,SBD,M,
Boys,124.74,1,Gerry Salazar,McCamey,115.67,235.87,138.35,213.19,587.4,Single-ply,SBD,M,
Boys,124.74,2,Kobe Cervantes,Coahoma,113.76,235.87,140.61,204.12,580.6,Single-ply,SBD,M,
Boys,124.74,3,Justin Glass,Big Lake Reagan County,115.67,226.8,122.47,181.44,530.7,Single-ply,SBD,M,
Boys,124.74,4,Isaiah Garcia,McCamey,114.89,210.92,104.33,204.12,519.36,Single-ply,SBD,M,
Boys,124.74,5,Grayson Glidewell,Coahoma,112.49,185.97,108.86,181.44,476.27,Single-ply,SBD,M,
Boys,124.74,6,Blake Guerra,Coahoma,121.47,188.24,83.91,158.76,430.91,Single-ply,SBD,M,
Boys,124.74+,1,Keano Perez,Ozona,135.62,244.94,147.42,192.78,585.13,Single-ply,SBD,M,
Boys,124.74+,2,Miguel Jauregui,Monahans,179.53,147.42,79.38,131.54,358.34,Single-ply,SBD,M,
Boys,,NS,Jacob Alston,Monahans,,,,,,Single-ply,SBD,M,
Boys,,NS,Jacob Payne,Monahans,,,,,,Single-ply,SBD,M,
Boys,,NS,Vance Ott,Coahoma,,,,,,Single-ply,SBD,M,
Boys,,NS,Alex Santos,Monahans,,,,,,Single-ply,SBD,M,
Boys,,NS,Noah Powell,Monahans,,,,,,Single-ply,SBD,M,
Boys,,NS,Nick Gonzales,Coahoma,,,,,,Single-ply,SBD,M,
Boys,,NS,Ky Kemper,Coahoma,,,,,,Single-ply,SBD,M,
Boys,,NS,Mason Hudgins,Coahoma,,,,,,Single-ply,SBD,M,
Boys,,NS,Mike Martinez,Ozona,,,,,,Single-ply,SBD,M,
Boys,,NS,Aiden Fuentes,Ozona,,,,,,Single-ply,SBD,M,
Boys,,NS,Julian Dominguez,Ozona,,,,,,Single-ply,SBD,M,
Boys,,NS,Tony Ortiz,Big Lake Reagan County,,,,,,Single-ply,SBD,M,
Boys,,NS,Marcos Villalobos,Sonora,,,,,,Single-ply,SBD,M,
Boys,,NS,Manuel Divila,Big Lake Reagan County,,,,,,Single-ply,SBD,M,
