Place,Name,Sex,BirthYear,Age,Country,State,Equipment,Division,BodyweightKg,WeightClassKg,Squat1Kg,Squat2Kg,Squat3Kg,Squat4Kg,Best3SquatKg,Bench1Kg,Bench2Kg,Bench3Kg,Best3BenchKg,Deadlift1Kg,Deadlift2Kg,Deadlift3Kg,Deadlift4Kg,Best3DeadliftKg,TotalKg,BirthDate,Event
1,Joseph Caudill,M,2001,21,USA,MD,Wraps,J20-23,72.5,75,210,222.5,232.5,,232.5,125,130,137.5,137.5,210,220,230,,230,600,,SBD
1,Donald Riffle Jr,M,1968,54,USA,MD,Wraps,M50-54,118,125,260,285,300,,300,175,190,-202.5,190,295,325,,,325,815,,SBD
1,Alex Ramos #1,M,1993,29,USA,AL,Wraps,Open,74.7,75,290,310,317.5,327.5,317.5,155,165,172.5,172.5,255,270,282.5,,282.5,772.5,,SBD
2,Dominic Lazzara,M,1994,28,USA,NC,Wraps,Open,74.4,75,220,237.5,-250,,237.5,140,150,-162.5,150,225,247.5,-262.5,,247.5,635,,SBD
3,Joseph Caudill,M,2001,21,USA,MD,Wraps,Open,72.5,75,210,222.5,232.5,,232.5,125,130,137.5,137.5,210,220,230,,230,600,,SBD
1,Ryan Betz,M,1991,31,USA,MD,Wraps,Open,82.05,82.5,300,320,335,,335,175,187.5,192.5,192.5,272.5,-285,-290,,272.5,800,,SBD
2,Timothy Brown #2,M,1993,29,USA,MD,Wraps,Open,82.05,82.5,222.5,237.5,-250,,237.5,145,152.5,160,160,220,-232.5,237.5,,237.5,635,,SBD
1,Antonio Carter,M,1988,33,USA,WV,Wraps,Open,98.9,100,320,340,,,340,210,220,230,230,325,337.5,-347.5,,337.5,907.5,,SBD
2,JT Wingard,M,1996,26,USA,TN,Wraps,Open,98.9,100,262.5,287.5,,,287.5,160,177.5,-182.5,177.5,255,-272.5,272.5,,272.5,737.5,,SBD
3,Grey Reese,M,1993,29,USA,MD,Wraps,Open,94.75,100,255,267.5,-290,,267.5,155,165,-170,165,275,287.5,302.5,,302.5,735,,SBD
1,John Flagg,M,1983,38,USA,MD,Wraps,Open,132.9,140,312.5,330,347.5,,347.5,205,217.5,-227.5,217.5,285,302.5,312.5,,312.5,877.5,,SBD
1,Travis P. Rogers,M,,,USA,MD,Unlimited,J20-23,89.5,90,307.5,322.5,332.5,,332.5,282.5,300,310,310,315,327.5,-337.5,,327.5,970,,SBD
1,Travis P. Rogers,M,,,USA,MD,Unlimited,Open,89.5,90,,,,,,282.5,300,310,310,315,327.5,-337.5,,327.5,637.5,,BD
1,Nicholas Leger,M,1999,22,USA,VA,Raw,J20-23,86.5,90,180,190,-197.5,,190,105,110,-117.5,110,190,200,215,,215,515,,SBD
1,Zach Tyree,M,1998,23,USA,VA,Raw,J20-23,108.75,110,275,287.5,-300,,287.5,185,192.5,-200,192.5,265,277.5,-285,,277.5,757.5,,SBD
2,Jacob Winstead #1,M,2002,20,USA,MD,Raw,J20-23,108.65,110,217.5,227.5,232.5,,232.5,147.5,155,-165,155,252.5,275,-287.5,,275,662.5,,SBD
3,Mark Burgess,M,1999,23,USA,MD,Raw,J20-23,101.25,110,200,215,222.5,,222.5,130,142.5,-150,142.5,265,287.5,295,,295,660,,SBD
4,Michael Kilton,M,1999,23,USA,VA,Raw,J20-23,109.3,110,220,230,-245,,230,137.5,150,-160,150,215,-232.5,-232.5,,215,595,,SBD
1,Leonel Payes,M,2000,22,USA,IL,Raw,J20-23,125.35,140,227.5,242.5,252.5,,252.5,140,147.5,-157.5,147.5,220,240,255,,255,655,,SBD
1,David Pascucci,M,1982,40,USA,PA,Raw,M40-44,89.7,90,240,250,260,,260,162.5,167.5,-175,167.5,247.5,260,272.5,280,272.5,700,,SBD
1,Scott Haddaway,M,1973,48,USA,MD,Raw,M45-49,117.5,125,215,227.5,235,,235,142.5,150,-160,150,242.5,252.5,262.5,,262.5,647.5,,SBD
1,Nabil Lahlou,M,1999,23,USA,VA,Raw,Open,67.4,67.5,215,232.5,,,232.5,122.5,132.5,,132.5,287.5,322.5,-330,,322.5,687.5,,SBD
2,Thom Ferris,M,1990,32,USA,PA,Raw,Open,63.55,67.5,180,187.5,195,,195,125,-130,-130,125,220,-232.5,-232.5,,220,540,,SBD
1,Corey Brown,M,1993,29,USA,PA,Raw,Open,82.45,82.5,220,235,240,,240,135,142.5,-150,142.5,255,270,-282.5,,270,652.5,,SBD
1,Abner Nazario,M,1992,29,USA,TN,Raw,Open,87.6,90,170,182.5,197.5,,197.5,102.5,110,-127.5,110,295,320,335,,335,642.5,,SBD
2,Brandon Zablocki,M,1991,31,USA,PA,Raw,Open,86.6,90,-185,185,197.5,,197.5,135,-140,-140,135,235,255,-260,,255,587.5,,SBD
1,Frank Marksbury,M,1997,25,USA,VA,Raw,Open,99.05,100,255,277.5,-287.5,,277.5,160,170,,170,310,322.5,-335,,322.5,770,,SBD
2,Warren Weaver,M,1992,30,USA,VA,Raw,Open,99.75,100,230,240,242.5,,242.5,160,-170,-170,160,320,-330,-330,,320,722.5,,SBD
1,Phillip Herndon,M,1995,27,USA,MD,Raw,Open,109.4,110,375,395,,,395,192.5,210,-220,210,350,372.5,-380,,372.5,977.5,,SBD
2,Zach Tyree,M,1998,23,USA,VA,Raw,Open,108.75,110,275,287.5,-300,,287.5,185,192.5,-200,192.5,265,277.5,-285,,277.5,757.5,,SBD
3,John Roberson,M,1988,34,USA,MD,Raw,Open,109.5,110,265,-282.5,-282.5,,265,-175,175,-180,175,300,315,-320,,315,755,,SBD
4,Tyree Reeves,M,1989,33,USA,MD,Raw,Open,102.85,110,247.5,257.5,-265,,257.5,170,177.5,-182.5,177.5,277.5,-292.5,-292.5,,277.5,712.5,,SBD
5,Jezreel Inon,M,1991,31,USA,VA,Raw,Open,108.75,110,225,235,242.5,,242.5,150,160,-162.5,160,240,250,265,,265,667.5,,SBD
6,Jacob Winstead #1,M,2002,20,USA,MD,Raw,Open,108.65,110,217.5,227.5,232.5,,232.5,147.5,155,-165,155,252.5,275,-287.5,,275,662.5,,SBD
7,Jacob Delinois,M,1995,27,USA,DE,Raw,Open,100.45,110,-220,230,-240,,230,137.5,142.5,-147.5,142.5,260,-275,-275,,260,632.5,,SBD
8,Juwan Hobbs,M,1994,28,USA,VA,Raw,Open,109.8,110,182.5,205,215,,215,-152.5,160,-180,160,215,232.5,245,,245,620,,SBD
1,Andrew Fox,M,1988,34,USA,NJ,Raw,Open,130,140,290,310,330,,330,182.5,197.5,210,210,310,-335,335,,335,875,,SBD
1,Westley Rowe,M,1994,28,USA,DE,Raw,Open,143.5,140+,175,190,205,,205,102.5,110,122.5,122.5,240,-257.5,-257.5,,240,567.5,,SBD
1,Andrew Fox,M,1988,34,USA,NJ,Raw,Open,130,140,,,,,,,,,,310,-335,335,,335,335,,D
1,Paige Roberts,F,2000,22,USA,VA,Raw,J20-23,61.35,67.5,70,80,90,,90,37.5,42.5,47.5,47.5,95,107.5,-132.5,,107.5,245,,SBD
1,Amanda Smith #5,F,2000,22,USA,VA,Raw,J20-23,75,75,200,210,227.5,,227.5,105,117.5,-125,117.5,-210,210,-227.5,,210,555,,SBD
1,Allie Higgins,F,1996,26,USA,VA,Raw,Open,66.25,67.5,140,-142.5,142.5,,142.5,67.5,-72.5,-72.5,67.5,157.5,165,-172.5,,165,375,,SBD
1,Amanda Smith #5,F,2000,22,USA,VA,Raw,Open,75,75,200,210,227.5,,227.5,105,117.5,-125,117.5,-210,210,-227.5,,210,555,,SBD
2,Melissa Freeman,F,1996,26,USA,VA,Raw,Open,70.85,75,117.5,125,-132.5,,125,55,60,-62.5,60,125,142.5,155,,155,340,,SBD
1,Jasmine Jenkins,F,1984,38,USA,NC,Raw,Open,81.4,82.5,147.5,160,-175,,160,95,100,105,105,185,200,205,,205,470,,SBD
2,Amira Smith,F,1992,29,USA,VA,Raw,Open,81.25,82.5,152.5,160,-165,,160,67.5,72.5,-75,72.5,190,195,-197.5,,195,427.5,,SBD
