Division,WeightClassKg,Place,Name,Team,BodyweightKg,Best3SquatKg,Best3BenchKg,Best3DeadliftKg,TotalKg,Equipment,Event,Sex,BirthDate
Boys,51.71,1,Derek Perez #1,Rio Hondo,47.26,136.08,63.5,145.15,344.73,Single-ply,SBD,M,
Boys,51.71,2,Julio Velasco,Brownsville Lopez,47.54,120.2,65.77,138.35,324.32,Single-ply,SBD,M,
Boys,51.71,3,Diego Garcia #1,Rio Hondo,50.71,92.99,49.9,117.93,260.82,Single-ply,SBD,M,
Boys,55.79,1,Lucio Zamora,Brownsville Lopez,54.16,111.13,70.31,129.27,310.71,Single-ply,SBD,M,
Boys,55.79,2,Alejandro Garza,Brownsville Pace,55.79,92.99,72.57,106.59,272.16,Single-ply,SBD,M,
Boys,59.87,1,Jacob Solis,PSJA,57.52,167.83,90.72,161.03,419.57,Single-ply,SBD,M,
Boys,59.87,2,Aaron Martinez,PSJA Southwest,58.69,136.08,83.91,142.88,362.87,Single-ply,SBD,M,
Boys,59.87,3,Christian Villanueva,Edinburg Economedes,58.69,83.91,40.82,92.99,217.72,Single-ply,SBD,M,
Boys,67.13,1,Israel Ramos,Brownsville Pace,67.13,204.12,117.93,219.99,542.04,Single-ply,SBD,M,
Boys,67.13,2,Jose Barrientos,Rio Hondo,67.13,199.58,127.01,208.65,535.24,Single-ply,SBD,M,
Boys,67.13,3,Elek Hernandez,Rio Hondo,63.5,145.15,95.25,181.44,421.84,Single-ply,SBD,M,
Boys,67.13,4,Gavin Perez,Rio Hondo,64.41,154.22,83.91,170.1,408.23,Single-ply,SBD,M,
Boys,67.13,5,Joaquin Castaneda,Edinburg Economedes,66.32,136.08,83.91,145.15,365.14,Single-ply,SBD,M,
Boys,67.13,6,Cecilio Pacheco,Edinburg Economedes,66.32,104.33,77.11,147.42,328.85,Single-ply,SBD,M,
Boys,67.13,7,Maxx Quintanilla,Brownsville Pace,66.59,102.06,79.38,124.74,306.17,Single-ply,SBD,M,
Boys,67.13,8,Scott Payne,Rio Hondo,63.87,102.06,52.16,127.01,281.23,Single-ply,SBD,M,
Boys,67.13,9,Joel Sanchez #8,PSJA Southwest,61.42,102.06,63.5,111.13,276.69,Single-ply,SBD,M,
Boys,67.13,10,Eduardo Lopez,PSJA Southwest,60.46,81.65,43.09,104.33,229.06,Single-ply,SBD,M,
Boys,74.84,1,Ramiro Yanez,PSJA,72.39,247.21,136.08,258.55,641.83,Single-ply,SBD,M,
Boys,74.84,2,Valient Rodriguez,Brownsville Pace,74.57,199.58,120.2,192.78,512.56,Single-ply,SBD,M,
Boys,74.84,3,Luis Segura,PSJA Southwest,73.03,161.03,133.81,183.7,478.54,Single-ply,SBD,M,
Boys,74.84,4,Nicholas Perez #7,Brownsville Pace,73.21,176.9,115.67,165.56,458.13,Single-ply,SBD,M,
Boys,74.84,5,Rene Zamorano,Rio Hondo,70.49,131.54,65.77,124.74,322.05,Single-ply,SBD,M,
Boys,74.84,DQ,Joseph Andersen,Rio Hondo,70.13,158.76,,,,Single-ply,SBD,M,
Boys,82.1,1,Jael Bernal,PSJA,79.2,215.46,142.88,204.12,562.45,Single-ply,SBD,M,
Boys,82.1,2,Andrew Roder,Brownsville Lopez,78.2,206.38,120.2,197.31,523.9,Single-ply,SBD,M,
Boys,82.1,3,Lupe Garcia,PSJA Southwest,75.75,142.88,99.79,174.63,417.3,Single-ply,SBD,M,
Boys,82.1,4,Jetzael Ramos,PSJA Southwest,79.47,136.08,58.97,131.54,326.59,Single-ply,SBD,M,
Boys,82.1,5,Fernando Morales,Edinburg Economedes,80.29,102.06,70.31,142.88,315.25,Single-ply,SBD,M,
Boys,82.1,6,Edwin Gaytan,Edinburg Economedes,76.48,102.06,58.97,149.69,310.71,Single-ply,SBD,M,
Boys,82.1,7,Charlie Bell,Edinburg Economedes,78.74,79.38,70.31,149.69,299.37,Single-ply,SBD,M,
Boys,82.1,DQ,Luis Garza,Brownsville Pace,77.02,122.47,,,,Single-ply,SBD,M,
Boys,89.81,1,Manuel Flores,Rio Hondo,88,201.85,154.22,183.7,539.77,Single-ply,SBD,M,
Boys,89.81,2,Eliud Serna,PSJA,85.64,176.9,117.93,181.44,476.27,Single-ply,SBD,M,
Boys,89.81,3,Arthur Emerson,Brownsville Pace,89.77,183.7,104.33,185.97,474,Single-ply,SBD,M,
Boys,89.81,4,Jonathan Hernandez,Edinburg Economedes,85.09,158.76,99.79,181.44,439.98,Single-ply,SBD,M,
Boys,89.81,5,Tim Plata,Edinburg Economedes,88.09,145.15,92.99,181.44,419.57,Single-ply,SBD,M,
Boys,89.81,6,Omar Nava,Brownsville Pace,89.81,120.2,70.31,111.13,301.64,Single-ply,SBD,M,
Boys,99.79,1,Omar Cervantes,Brownsville Lopez,93.44,233.6,142.88,192.78,569.26,Single-ply,SBD,M,
Boys,99.79,2,Isaac Sanchez,PSJA,97.52,204.12,151.95,181.44,537.51,Single-ply,SBD,M,
Boys,99.79,3,Diego Salinas,Edinburg Economedes,99.34,151.95,81.65,145.15,378.75,Single-ply,SBD,M,
Boys,99.79,4,Herieberto Rocha,PSJA Southwest,93.44,136.08,97.52,142.88,376.48,Single-ply,SBD,M,
Boys,99.79,5,Cristofer Ontiveros,Edinburg Economedes,96.16,151.95,81.65,136.08,369.68,Single-ply,SBD,M,
Boys,99.79,6,Ismael Garcia,Edinburg Economedes,92.8,122.47,70.31,170.1,362.87,Single-ply,SBD,M,
Boys,99.79,7,Antonio González,Edinburg Economedes,97.98,108.86,65.77,145.15,319.78,Single-ply,SBD,M,
Boys,99.79,8,Anthony Gonzalez,Edinburg Economedes,90.26,99.79,74.84,113.4,288.03,Single-ply,SBD,M,
Boys,99.79,9,Eddie Guajarro,PSJA Southwest,96.43,113.4,56.7,104.33,274.42,Single-ply,SBD,M,
Boys,109.77,1,Mario Ramirez,Brownsville Lopez,103.69,269.89,176.9,233.6,680.39,Single-ply,SBD,M,
Boys,109.77,2,Josue Martinez,PSJA Southwest,109.77,127.01,74.84,111.13,312.98,Single-ply,SBD,M,
Boys,109.77,DQ,Alexander Saenz,Edinburg Economedes,107.59,,,,,Single-ply,SBD,M,
Boys,124.74,1,Ruben Perez,Rio Hondo,117.57,238.14,154.22,208.65,601.01,Single-ply,SBD,M,
Boys,124.74,2,Kevin Garcia,Brownsville Pace,116.57,226.8,142.88,226.8,596.47,Single-ply,SBD,M,
Boys,124.74,3,Kaleb Loredo,Brownsville Pace,120.11,249.48,136.08,204.12,589.67,Single-ply,SBD,M,
Boys,124.74,4,Oscar Nieves,Brownsville Lopez,123.1,219.99,149.69,210.92,580.6,Single-ply,SBD,M,
Boys,124.74,5,Brandon Longoria,Brownsville Lopez,117.93,210.92,115.67,197.31,523.9,Single-ply,SBD,M,
Boys,124.74,6,Sergio Avitua,PSJA,122.2,201.85,115.67,206.38,523.9,Single-ply,SBD,M,
Boys,124.74,7,Jonathan Solis,Edinburg Economedes,113.49,151.95,88.45,174.63,415.04,Single-ply,SBD,M,
Boys,124.74,8,Guillermo Ortegon,Brownsville Pace,113.49,131.54,58.97,138.35,328.85,Single-ply,SBD,M,
Boys,139.71,1,Oscar de la Cruz,PSJA Southwest,130.82,249.48,174.63,226.8,650.91,Single-ply,SBD,M,
Boys,139.71,2,Manuel Ramirez,Rio Hondo,126.64,208.65,124.74,215.46,548.85,Single-ply,SBD,M,
Boys,139.71,3,Jakob de la Rosa,Edinburg Economedes,134.81,170.1,106.59,176.9,453.59,Single-ply,SBD,M,
Boys,139.71,4,Jordan Guevara,Edinburg Economedes,135.99,65.77,31.75,68.04,165.56,Single-ply,SBD,M,
Boys,139.71+,1,Miguel Chavarria,Rio Hondo,153.09,233.6,145.15,217.72,596.47,Single-ply,SBD,M,
Boys,139.71+,2,Jorge Rendon,PSJA,144.24,233.6,161.03,188.24,582.87,Single-ply,SBD,M,
